EESchema Schematic File Version 4
EELAYER 30 0
EELAYER END
$Descr A4 11693 8268
encoding utf-8
Sheet 1 1
Title "FSK communication"
Date "2020-04-17"
Rev ""
Comp "Wrocław University of Science and Technology"
Comment1 "Patryk Knapik"
Comment2 "Bartosz Michalak"
Comment3 ""
Comment4 ""
$EndDescr
$Comp
L fsk-rescue:CD74HC4046A-74xx U?
U 1 1 5E9A6B70
P 5300 1700
F 0 "U?" H 5325 2275 50  0000 C CNN
F 1 "CD74HC4046A" H 5325 2184 50  0000 C CNN
F 2 "" H 4950 2250 50  0001 C CNN
F 3 "" H 4950 2250 50  0001 C CNN
	1    5300 1700
	1    0    0    -1  
$EndComp
$Comp
L power:+5V #PWR?
U 1 1 5E9A837C
P 6150 1150
F 0 "#PWR?" H 6150 1000 50  0001 C CNN
F 1 "+5V" H 6165 1323 50  0000 C CNN
F 2 "" H 6150 1150 50  0001 C CNN
F 3 "" H 6150 1150 50  0001 C CNN
	1    6150 1150
	1    0    0    -1  
$EndComp
$Comp
L power:GND #PWR?
U 1 1 5E9A883B
P 4550 2150
F 0 "#PWR?" H 4550 1900 50  0001 C CNN
F 1 "GND" H 4555 1977 50  0000 C CNN
F 2 "" H 4550 2150 50  0001 C CNN
F 3 "" H 4550 2150 50  0001 C CNN
	1    4550 2150
	1    0    0    -1  
$EndComp
Wire Wire Line
	4550 2150 4550 2050
Wire Wire Line
	4550 2050 4650 2050
Wire Wire Line
	6000 1350 6150 1350
Wire Wire Line
	6150 1350 6150 1150
$Comp
L Device:R R?
U 1 1 5E9A9810
P 4050 1750
F 0 "R?" V 3843 1750 50  0000 C CNN
F 1 "10k" V 3934 1750 50  0000 C CNN
F 2 "" V 3980 1750 50  0001 C CNN
F 3 "~" H 4050 1750 50  0001 C CNN
	1    4050 1750
	0    1    1    0   
$EndComp
Wire Wire Line
	4200 1750 4650 1750
$Comp
L Device:R R?
U 1 1 5E9AA3B3
P 6700 1850
F 0 "R?" V 6493 1850 50  0000 C CNN
F 1 "3k" V 6584 1850 50  0000 C CNN
F 2 "" V 6630 1850 50  0001 C CNN
F 3 "~" H 6700 1850 50  0001 C CNN
	1    6700 1850
	0    1    1    0   
$EndComp
$Comp
L Device:R R?
U 1 1 5E9AB070
P 6700 1500
F 0 "R?" V 6493 1500 50  0000 C CNN
F 1 "R" V 6584 1500 50  0000 C CNN
F 2 "" V 6630 1500 50  0001 C CNN
F 3 "~" H 6700 1500 50  0001 C CNN
	1    6700 1500
	0    1    1    0   
$EndComp
Wire Wire Line
	6550 1500 6450 1500
Wire Wire Line
	6450 1500 6450 1750
Wire Wire Line
	6450 1750 6000 1750
Wire Wire Line
	6000 1850 6550 1850
$Comp
L power:GND #PWR?
U 1 1 5E9AB7BA
P 6950 1950
F 0 "#PWR?" H 6950 1700 50  0001 C CNN
F 1 "GND" H 6955 1777 50  0000 C CNN
F 2 "" H 6950 1950 50  0001 C CNN
F 3 "" H 6950 1950 50  0001 C CNN
	1    6950 1950
	1    0    0    -1  
$EndComp
Wire Wire Line
	6850 1850 6950 1850
Wire Wire Line
	6950 1850 6950 1950
Wire Wire Line
	6850 1500 6950 1500
Wire Wire Line
	6950 1500 6950 1850
Connection ~ 6950 1850
NoConn ~ 6000 1450
NoConn ~ 6000 1650
NoConn ~ 6000 1950
NoConn ~ 4650 1350
NoConn ~ 4650 1450
NoConn ~ 4650 1550
$Comp
L Device:C C?
U 1 1 5E9AC6AC
P 4050 2100
F 0 "C?" H 3935 2054 50  0000 R CNN
F 1 "47p" H 3935 2145 50  0000 R CNN
F 2 "" H 4088 1950 50  0001 C CNN
F 3 "~" H 4050 2100 50  0001 C CNN
	1    4050 2100
	-1   0    0    1   
$EndComp
Wire Wire Line
	4050 1950 4050 1850
Wire Wire Line
	4050 1850 4650 1850
Wire Wire Line
	4650 1950 4350 1950
Wire Wire Line
	4350 1950 4350 2350
Wire Wire Line
	4350 2350 4050 2350
Wire Wire Line
	4050 2350 4050 2250
$Comp
L Device:C C?
U 1 1 5E9AFDEC
P 6150 2700
F 0 "C?" H 6035 2654 50  0000 R CNN
F 1 "47p" H 6035 2745 50  0000 R CNN
F 2 "" H 6188 2550 50  0001 C CNN
F 3 "~" H 6150 2700 50  0001 C CNN
	1    6150 2700
	-1   0    0    1   
$EndComp
$Comp
L Device:R R?
U 1 1 5E9B1C55
P 6450 2350
F 0 "R?" V 6243 2350 50  0000 C CNN
F 1 "1k6" V 6334 2350 50  0000 C CNN
F 2 "" V 6380 2350 50  0001 C CNN
F 3 "~" H 6450 2350 50  0001 C CNN
	1    6450 2350
	0    1    1    0   
$EndComp
Wire Wire Line
	6150 2550 6150 2350
Wire Wire Line
	6150 2350 6300 2350
Wire Wire Line
	6150 2350 6150 2050
Wire Wire Line
	6150 2050 6000 2050
Connection ~ 6150 2350
$Comp
L power:GND #PWR?
U 1 1 5E9B2882
P 6150 2900
F 0 "#PWR?" H 6150 2650 50  0001 C CNN
F 1 "GND" H 6155 2727 50  0000 C CNN
F 2 "" H 6150 2900 50  0001 C CNN
F 3 "" H 6150 2900 50  0001 C CNN
	1    6150 2900
	1    0    0    -1  
$EndComp
Wire Wire Line
	6150 2900 6150 2850
$Comp
L Device:Antenna AE?
U 1 1 5E9B32E6
P 4450 950
F 0 "AE?" H 4530 939 50  0000 L CNN
F 1 "Antenna" H 4530 848 50  0000 L CNN
F 2 "" H 4450 950 50  0001 C CNN
F 3 "~" H 4450 950 50  0001 C CNN
	1    4450 950 
	1    0    0    -1  
$EndComp
Wire Wire Line
	4450 1150 4450 1650
Wire Wire Line
	4450 1650 4650 1650
Wire Wire Line
	3900 1750 3850 1750
Text GLabel 3850 1750 0    50   Input ~ 0
enable
Text Notes 6350 1200 0    50   ~ 0
Offset
Wire Notes Line
	5950 2100 6600 2100
Wire Notes Line
	6600 2100 6600 2900
Wire Notes Line
	6600 2900 5950 2900
Wire Notes Line
	5950 2900 5950 2100
Wire Notes Line
	6350 1200 7200 1200
Wire Notes Line
	7200 1200 7200 1600
Wire Notes Line
	7200 1600 6350 1600
Wire Notes Line
	6350 1600 6350 1200
Text Notes 3000 800  0    100  ~ 0
Modulator
Text Notes 3000 3350 0    100  ~ 0
Demodulator
$Comp
L fsk-rescue:CD74HC4046A-74xx U?
U 1 1 5E9B34C6
P 4650 4750
F 0 "U?" H 4675 5325 50  0000 C CNN
F 1 "CD74HC4046A" H 4675 5234 50  0000 C CNN
F 2 "" H 4300 5300 50  0001 C CNN
F 3 "" H 4300 5300 50  0001 C CNN
	1    4650 4750
	1    0    0    -1  
$EndComp
$Comp
L power:+5V #PWR?
U 1 1 5E9B34CC
P 5500 4200
F 0 "#PWR?" H 5500 4050 50  0001 C CNN
F 1 "+5V" H 5515 4373 50  0000 C CNN
F 2 "" H 5500 4200 50  0001 C CNN
F 3 "" H 5500 4200 50  0001 C CNN
	1    5500 4200
	1    0    0    -1  
$EndComp
$Comp
L power:GND #PWR?
U 1 1 5E9B34D2
P 3900 5200
F 0 "#PWR?" H 3900 4950 50  0001 C CNN
F 1 "GND" H 3905 5027 50  0000 C CNN
F 2 "" H 3900 5200 50  0001 C CNN
F 3 "" H 3900 5200 50  0001 C CNN
	1    3900 5200
	1    0    0    -1  
$EndComp
Wire Wire Line
	3900 5200 3900 5100
Wire Wire Line
	3900 5100 4000 5100
Wire Wire Line
	5350 4400 5500 4400
Wire Wire Line
	5500 4400 5500 4200
$Comp
L Device:R R?
U 1 1 5E9B34DC
P 3400 4800
F 0 "R?" V 3193 4800 50  0000 C CNN
F 1 "10k" V 3284 4800 50  0000 C CNN
F 2 "" V 3330 4800 50  0001 C CNN
F 3 "~" H 3400 4800 50  0001 C CNN
	1    3400 4800
	0    1    1    0   
$EndComp
Wire Wire Line
	3550 4800 4000 4800
$Comp
L Device:R R?
U 1 1 5E9B34E3
P 6050 4900
F 0 "R?" V 5843 4900 50  0000 C CNN
F 1 "3k" V 5934 4900 50  0000 C CNN
F 2 "" V 5980 4900 50  0001 C CNN
F 3 "~" H 6050 4900 50  0001 C CNN
	1    6050 4900
	0    1    1    0   
$EndComp
$Comp
L Device:R R?
U 1 1 5E9B34E9
P 6050 4550
F 0 "R?" V 5843 4550 50  0000 C CNN
F 1 "R" V 5934 4550 50  0000 C CNN
F 2 "" V 5980 4550 50  0001 C CNN
F 3 "~" H 6050 4550 50  0001 C CNN
	1    6050 4550
	0    1    1    0   
$EndComp
Wire Wire Line
	5900 4550 5800 4550
Wire Wire Line
	5800 4550 5800 4800
Wire Wire Line
	5800 4800 5350 4800
Wire Wire Line
	5350 4900 5900 4900
$Comp
L power:GND #PWR?
U 1 1 5E9B34F3
P 6300 5350
F 0 "#PWR?" H 6300 5100 50  0001 C CNN
F 1 "GND" H 6305 5177 50  0000 C CNN
F 2 "" H 6300 5350 50  0001 C CNN
F 3 "" H 6300 5350 50  0001 C CNN
	1    6300 5350
	1    0    0    -1  
$EndComp
Wire Wire Line
	6200 4900 6300 4900
Wire Wire Line
	6300 4900 6300 5150
Wire Wire Line
	6200 4550 6300 4550
Wire Wire Line
	6300 4550 6300 4900
Connection ~ 6300 4900
NoConn ~ 5350 4500
NoConn ~ 4000 4400
NoConn ~ 4000 4500
$Comp
L Device:C C?
U 1 1 5E9B3504
P 3400 5150
F 0 "C?" H 3285 5104 50  0000 R CNN
F 1 "47p" H 3285 5195 50  0000 R CNN
F 2 "" H 3438 5000 50  0001 C CNN
F 3 "~" H 3400 5150 50  0001 C CNN
	1    3400 5150
	-1   0    0    1   
$EndComp
Wire Wire Line
	3400 5000 3400 4900
Wire Wire Line
	3400 4900 4000 4900
Wire Wire Line
	4000 5000 3700 5000
Wire Wire Line
	3700 5000 3700 5400
Wire Wire Line
	3700 5400 3400 5400
Wire Wire Line
	3400 5400 3400 5300
$Comp
L Device:C C?
U 1 1 5E9B3510
P 5500 5750
F 0 "C?" H 5385 5704 50  0000 R CNN
F 1 "47p" H 5385 5795 50  0000 R CNN
F 2 "" H 5538 5600 50  0001 C CNN
F 3 "~" H 5500 5750 50  0001 C CNN
	1    5500 5750
	-1   0    0    1   
$EndComp
$Comp
L Device:R R?
U 1 1 5E9B3516
P 5700 5350
F 0 "R?" V 5493 5350 50  0000 C CNN
F 1 "1k6" V 5584 5350 50  0000 C CNN
F 2 "" V 5630 5350 50  0001 C CNN
F 3 "~" H 5700 5350 50  0001 C CNN
	1    5700 5350
	1    0    0    -1  
$EndComp
Wire Wire Line
	5500 5100 5350 5100
$Comp
L power:GND #PWR?
U 1 1 5E9B3521
P 5500 5950
F 0 "#PWR?" H 5500 5700 50  0001 C CNN
F 1 "GND" H 5505 5777 50  0000 C CNN
F 2 "" H 5500 5950 50  0001 C CNN
F 3 "" H 5500 5950 50  0001 C CNN
	1    5500 5950
	1    0    0    -1  
$EndComp
Wire Wire Line
	5500 5950 5500 5900
Wire Wire Line
	3800 4700 4000 4700
Wire Wire Line
	3250 4800 3200 4800
Text GLabel 3200 4800 0    50   Input ~ 0
enable
Text Notes 5700 4250 0    50   ~ 0
Offset
Text Notes 5800 6050 0    50   ~ 0
LPF - 2MHz
Wire Notes Line
	5300 5150 5950 5150
Wire Notes Line
	5950 5150 5950 5950
Wire Notes Line
	5950 5950 5300 5950
Wire Notes Line
	5300 5950 5300 5150
Wire Notes Line
	5700 4250 6550 4250
Wire Notes Line
	6550 4250 6550 4650
Wire Notes Line
	6550 4650 5700 4650
Wire Notes Line
	5700 4650 5700 4250
Wire Wire Line
	6000 1550 6300 1550
Wire Wire Line
	6300 1550 6300 1100
Wire Wire Line
	6300 1100 6950 1100
Wire Wire Line
	6950 1100 6950 1500
Connection ~ 6950 1500
Wire Wire Line
	5350 4700 5700 4700
Wire Wire Line
	5500 5100 5500 5550
Wire Wire Line
	5700 4700 5700 5200
Wire Wire Line
	5700 5500 5700 5550
Wire Wire Line
	5700 5550 5500 5550
Connection ~ 5500 5550
Wire Wire Line
	5500 5550 5500 5600
Wire Wire Line
	3800 4700 3800 4600
Wire Wire Line
	3800 4600 4000 4600
$Comp
L Device:Antenna AE?
U 1 1 5E9BD362
P 5650 3750
F 0 "AE?" H 5730 3739 50  0000 L CNN
F 1 "Antenna" H 5730 3648 50  0000 L CNN
F 2 "" H 5650 3750 50  0001 C CNN
F 3 "~" H 5650 3750 50  0001 C CNN
	1    5650 3750
	1    0    0    -1  
$EndComp
Wire Wire Line
	5350 4600 5650 4600
Wire Wire Line
	5650 4600 5650 3950
$Comp
L Device:R R?
U 1 1 5E9C238C
P 6500 5150
F 0 "R?" V 6293 5150 50  0000 C CNN
F 1 "50k" V 6384 5150 50  0000 C CNN
F 2 "" V 6430 5150 50  0001 C CNN
F 3 "~" H 6500 5150 50  0001 C CNN
	1    6500 5150
	0    1    1    0   
$EndComp
Wire Wire Line
	5350 5000 6700 5000
Wire Wire Line
	6650 5150 6700 5150
Wire Wire Line
	6700 5150 6700 5000
Connection ~ 6700 5000
Wire Wire Line
	6350 5150 6300 5150
Connection ~ 6300 5150
Wire Wire Line
	6300 5150 6300 5350
Text Notes 6400 3000 0    50   ~ 0
LPF - 2MHz
Text Notes 750  7550 0    100  ~ 0
Fc = ca. 20MHz
Text Notes 2750 7550 0    100  ~ 0
1V < VCO_IN  < 0.9VCC; Fc -> 1/2 VCC
$Comp
L Reference_Voltage:TL431LP U?
U 1 1 5EE6C4BE
P 8000 2550
F 0 "U?" V 8046 2480 50  0000 R CNN
F 1 "TL431LP" V 7955 2480 50  0000 R CNN
F 2 "Package_TO_SOT_THT:TO-92_Inline" H 8000 2400 50  0001 C CIN
F 3 "http://www.ti.com/lit/ds/symlink/tl431.pdf" H 8000 2550 50  0001 C CIN
	1    8000 2550
	0    -1   -1   0   
$EndComp
$Comp
L Device:R_POT RV?
U 1 1 5EE6DBFF
P 7600 2550
F 0 "RV?" H 7531 2596 50  0000 R CNN
F 1 "R_POT" H 7531 2505 50  0000 R CNN
F 2 "" H 7600 2550 50  0001 C CNN
F 3 "~" H 7600 2550 50  0001 C CNN
	1    7600 2550
	1    0    0    -1  
$EndComp
$Comp
L Transistor_BJT:BC547 Q?
U 1 1 5EE748F5
P 8750 2450
F 0 "Q?" H 8941 2496 50  0000 L CNN
F 1 "BC547" H 8941 2405 50  0000 L CNN
F 2 "Package_TO_SOT_THT:TO-92_Inline" H 8950 2375 50  0001 L CIN
F 3 "http://www.fairchildsemi.com/ds/BC/BC547.pdf" H 8750 2450 50  0001 L CNN
	1    8750 2450
	0    -1   -1   0   
$EndComp
Wire Wire Line
	7600 2400 7600 2350
Wire Wire Line
	7600 2350 8000 2350
Wire Wire Line
	8000 2350 8000 2450
Wire Wire Line
	7750 2550 7900 2550
Wire Wire Line
	7600 2700 7600 2750
Wire Wire Line
	7600 2750 8000 2750
Wire Wire Line
	8000 2750 8000 2650
$Comp
L Device:R R?
U 1 1 5EE8451E
P 7600 2050
F 0 "R?" H 7670 2096 50  0000 L CNN
F 1 "1k" H 7670 2005 50  0000 L CNN
F 2 "" V 7530 2050 50  0001 C CNN
F 3 "~" H 7600 2050 50  0001 C CNN
	1    7600 2050
	1    0    0    -1  
$EndComp
Wire Wire Line
	7600 2200 7600 2350
Connection ~ 7600 2350
$Comp
L power:+5V #PWR?
U 1 1 5EE88989
P 7600 1800
F 0 "#PWR?" H 7600 1650 50  0001 C CNN
F 1 "+5V" H 7615 1973 50  0000 C CNN
F 2 "" H 7600 1800 50  0001 C CNN
F 3 "" H 7600 1800 50  0001 C CNN
	1    7600 1800
	1    0    0    -1  
$EndComp
Wire Wire Line
	7600 1900 7600 1800
$Comp
L power:GND #PWR?
U 1 1 5EE8AE98
P 7600 2900
F 0 "#PWR?" H 7600 2650 50  0001 C CNN
F 1 "GND" H 7605 2727 50  0000 C CNN
F 2 "" H 7600 2900 50  0001 C CNN
F 3 "" H 7600 2900 50  0001 C CNN
	1    7600 2900
	1    0    0    -1  
$EndComp
Wire Wire Line
	7600 2900 7600 2750
Connection ~ 7600 2750
$Comp
L Device:R R?
U 1 1 5EE8D82A
P 9000 2750
F 0 "R?" H 9070 2796 50  0000 L CNN
F 1 "1k" H 9070 2705 50  0000 L CNN
F 2 "" V 8930 2750 50  0001 C CNN
F 3 "~" H 9000 2750 50  0001 C CNN
	1    9000 2750
	0    -1   -1   0   
$EndComp
$Comp
L Device:R R?
U 1 1 5EE8E282
P 8750 3000
F 0 "R?" V 8543 3000 50  0000 C CNN
F 1 "100" V 8634 3000 50  0000 C CNN
F 2 "" V 8680 3000 50  0001 C CNN
F 3 "~" H 8750 3000 50  0001 C CNN
	1    8750 3000
	1    0    0    -1  
$EndComp
Wire Wire Line
	8750 2850 8750 2750
Wire Wire Line
	8850 2750 8750 2750
Connection ~ 8750 2750
Wire Wire Line
	8750 2750 8750 2650
Wire Wire Line
	9150 2750 9200 2750
Wire Wire Line
	9200 2750 9200 2350
Wire Wire Line
	9200 2350 8950 2350
Wire Wire Line
	6600 2350 7600 2350
$Comp
L Reference_Voltage:TL431LP U?
U 1 1 5EEAB128
P 10150 2550
F 0 "U?" V 10196 2480 50  0000 R CNN
F 1 "TL431LP" V 10105 2480 50  0000 R CNN
F 2 "Package_TO_SOT_THT:TO-92_Inline" H 10150 2400 50  0001 C CIN
F 3 "http://www.ti.com/lit/ds/symlink/tl431.pdf" H 10150 2550 50  0001 C CIN
	1    10150 2550
	0    -1   -1   0   
$EndComp
$Comp
L Device:R_POT RV?
U 1 1 5EEAB12E
P 9750 2550
F 0 "RV?" H 9681 2596 50  0000 R CNN
F 1 "R_POT" H 9681 2505 50  0000 R CNN
F 2 "" H 9750 2550 50  0001 C CNN
F 3 "~" H 9750 2550 50  0001 C CNN
	1    9750 2550
	1    0    0    -1  
$EndComp
Wire Wire Line
	9750 2400 9750 2350
Wire Wire Line
	9750 2350 10150 2350
Wire Wire Line
	10150 2350 10150 2450
Wire Wire Line
	9900 2550 10050 2550
Wire Wire Line
	9750 2700 9750 2750
Wire Wire Line
	9750 2750 10150 2750
Wire Wire Line
	10150 2750 10150 2650
$Comp
L Device:R R?
U 1 1 5EEAB13B
P 9750 2050
F 0 "R?" H 9820 2096 50  0000 L CNN
F 1 "1k" H 9820 2005 50  0000 L CNN
F 2 "" V 9680 2050 50  0001 C CNN
F 3 "~" H 9750 2050 50  0001 C CNN
	1    9750 2050
	1    0    0    -1  
$EndComp
Wire Wire Line
	9750 2200 9750 2350
Connection ~ 9750 2350
$Comp
L power:+5V #PWR?
U 1 1 5EEAB143
P 9750 1800
F 0 "#PWR?" H 9750 1650 50  0001 C CNN
F 1 "+5V" H 9765 1973 50  0000 C CNN
F 2 "" H 9750 1800 50  0001 C CNN
F 3 "" H 9750 1800 50  0001 C CNN
	1    9750 1800
	1    0    0    -1  
$EndComp
Wire Wire Line
	9750 1900 9750 1800
$Comp
L power:GND #PWR?
U 1 1 5EEAB14A
P 9750 2900
F 0 "#PWR?" H 9750 2650 50  0001 C CNN
F 1 "GND" H 9755 2727 50  0000 C CNN
F 2 "" H 9750 2900 50  0001 C CNN
F 3 "" H 9750 2900 50  0001 C CNN
	1    9750 2900
	1    0    0    -1  
$EndComp
Wire Wire Line
	9750 2900 9750 2750
Connection ~ 9750 2750
Wire Wire Line
	9200 2350 9750 2350
Connection ~ 9200 2350
Wire Wire Line
	8000 2350 8550 2350
Connection ~ 8000 2350
Text GLabel 8600 3250 0    50   Input ~ 0
DIGITAL_INPUT
Wire Wire Line
	8600 3250 8750 3250
Wire Wire Line
	8750 3250 8750 3150
Text Notes 9700 1400 0    50   ~ 0
3V5 source\n
Text Notes 7550 1400 0    50   ~ 0
4V5 source
$Comp
L Comparator:LM393 U?
U 1 1 5EF2EC4F
P 8550 5100
F 0 "U?" H 8550 5467 50  0000 C CNN
F 1 "LM393" H 8550 5376 50  0000 C CNN
F 2 "" H 8550 5100 50  0001 C CNN
F 3 "http://www.ti.com/lit/ds/symlink/lm393.pdf" H 8550 5100 50  0001 C CNN
	1    8550 5100
	1    0    0    -1  
$EndComp
$Comp
L Device:R R?
U 1 1 5EF30388
P 9000 4800
F 0 "R?" V 8793 4800 50  0000 C CNN
F 1 "10k" V 8884 4800 50  0000 C CNN
F 2 "" V 8930 4800 50  0001 C CNN
F 3 "~" H 9000 4800 50  0001 C CNN
	1    9000 4800
	-1   0    0    1   
$EndComp
$Comp
L power:+5V #PWR?
U 1 1 5EF30DD9
P 9000 4500
F 0 "#PWR?" H 9000 4350 50  0001 C CNN
F 1 "+5V" H 9015 4673 50  0000 C CNN
F 2 "" H 9000 4500 50  0001 C CNN
F 3 "" H 9000 4500 50  0001 C CNN
	1    9000 4500
	1    0    0    -1  
$EndComp
Text GLabel 9150 5100 2    50   Input ~ 0
DIGITAL_OUTPUT
$Comp
L Device:R_POT RV?
U 1 1 5EF31993
P 7850 5200
F 0 "RV?" H 7781 5246 50  0000 R CNN
F 1 "R_POT" H 7781 5155 50  0000 R CNN
F 2 "" H 7850 5200 50  0001 C CNN
F 3 "~" H 7850 5200 50  0001 C CNN
	1    7850 5200
	1    0    0    -1  
$EndComp
$Comp
L power:+5V #PWR?
U 1 1 5EF3331F
P 7850 4800
F 0 "#PWR?" H 7850 4650 50  0001 C CNN
F 1 "+5V" H 7865 4973 50  0000 C CNN
F 2 "" H 7850 4800 50  0001 C CNN
F 3 "" H 7850 4800 50  0001 C CNN
	1    7850 4800
	1    0    0    -1  
$EndComp
$Comp
L power:GND #PWR?
U 1 1 5EF33865
P 7850 5550
F 0 "#PWR?" H 7850 5300 50  0001 C CNN
F 1 "GND" H 7855 5377 50  0000 C CNN
F 2 "" H 7850 5550 50  0001 C CNN
F 3 "" H 7850 5550 50  0001 C CNN
	1    7850 5550
	1    0    0    -1  
$EndComp
Wire Wire Line
	6700 5000 8250 5000
Wire Wire Line
	7850 4800 7850 5050
Wire Wire Line
	8000 5200 8250 5200
Wire Wire Line
	7850 5550 7850 5350
Wire Wire Line
	8850 5100 9000 5100
Wire Wire Line
	9000 4950 9000 5100
Connection ~ 9000 5100
Wire Wire Line
	9000 5100 9150 5100
Wire Wire Line
	9000 4500 9000 4650
$EndSCHEMATC
